Chapter 3 Electrofishing data | The West Brook Story
…
## 
## FALSE 
##   343

  table(cfirstObs2000_2001BKT$observedLength)

## 
## 57 58 59 60 61 62 63 64 65 66 67 68 69 70 71 72 73 74 75 76 77 78 79 80 85 90 
## 18 23 23 26 20 28 19 14 28 23 20 21  9 14  8 11  3  8  4  5  6  5  1  3  2  1

  cfirstObs2000_2001BKT %>% filter(observedLength < 60)

## # A tibble: 64 x 18
##    tag     species river detectionDate       sampleNumber     n proportionSampl~ observedLength observedWeight area  date      
##    <chr>   <chr>   <chr> <dttm>                     <dbl> <dbl>            <dbl>          <dbl>          <dbl> <chr> <date>    
##  1 1bf0fc~ bkt     west~ 2001-09-10 12:00:00           27     2                1             58            1.9 insi~ 2001-09-10
##  2 1bf0fc~ bkt     west~ 2001-09-07 12:00:00           27     2                1             57            1.9 insi~ 2001-09-07
##  3 1bf0fe~ bkt     west~ 2001-09-07 12:00:00           27     1                1             59            2.1 insi~ 2001-09-07
##  4 1bf0fe~ bkt     west~ 2001-09-07 12:00:00           27     6                1             59            2.1 insi~ 2001-09-07
##  5 1bf0fe~ bkt     west~ 2001-09-06 12:00:00           27     1                1             59            2.2 insi~ 2001-09-06
##  6 1bf0fe~ bkt     west~ 2001-09-10 12:00:00           27     1                1             57            1.9 insi~ 2001-09-10
##  7 1bf0fe~ bkt     west~ 2001-09-07 12:00:00           27     3                1             58            2   insi~ 2001-09-07
##  8 1bf0fe~ bkt     west~ 2001-09-10 12:00:00           27     2                1             58            2.1 insi~ 2001-09-10
##  9 1bf0fe~ bkt     west~ 2001-09-06 12:00:00           27     4                1             58            2   insi~ 2001-09-06
## 10 1bf0fe~ bkt     west~ 2001-09-07 12:00:00           27     3                1             58            1.8 insi~ 2001-09-07
## # ... with 54 more rows, and 7 more variables: yday <dbl>, year <dbl>, spawnDate <date>, emergeDate <date>,
## #   spawn_emerge <list>, emerge_detect <list>, spawn_detect <list>
…
