Chapter 3 Models | The West Brook Story
…
## 
## FALSE 
##   343

  table(cfirstObs2000_2001BKT$observedLength)

## 
## 57 58 59 60 61 62 63 64 65 66 67 68 69 70 71 72 73 74 75 76 77 78 79 80 85 90 
## 18 23 23 26 20 28 19 14 28 23 20 21  9 14  8 11  3  8  4  5  6  5  1  3  2  1

  cfirstObs2000_2001BKT %>% filter(observedLength < 60)

## # A tibble: 64 × 27
##    tag        species river detectionDate       sampleNumber     n proportionSampl… observedLength observedWeight area 
##    <chr>      <chr>   <chr> <dttm>                     <dbl> <dbl>            <dbl>          <dbl>          <dbl> <chr>
##  1 1bf0fc3a19 bkt     west… 2001-09-10 12:00:00           27     2                1             58            1.9 insi…
##  2 1bf0fc46b1 bkt     west… 2001-09-07 12:00:00           27     2                1             57            1.9 insi…
##  3 1bf0fe50cb bkt     west… 2001-09-07 12:00:00           27     1                1             59            2.1 insi…
##  4 1bf0fe76f1 bkt     west… 2001-09-07 12:00:00           27     6                1             59            2.1 insi…
##  5 1bf0fe845b bkt     west… 2001-09-06 12:00:00           27     1                1             59            2.2 insi…
##  6 1bf0fe84ed bkt     west… 2001-09-10 12:00:00           27     1                1             57            1.9 insi…
##  7 1bf0fe8846 bkt     west… 2001-09-07 12:00:00           27     3                1             58            2   insi…
##  8 1bf0fe88d8 bkt     west… 2001-09-10 12:00:00           27     2                1             58            2.1 insi…
##  9 1bf0fe8b79 bkt     west… 2001-09-06 12:00:00           27     4                1             58            2   insi…
## 10 1bf0fe9504 bkt     west… 2001-09-07 12:00:00           27     3                1             58            1.8 insi…
## # … with 54 more rows, and 17 more variables: section <dbl>, season <dbl>, isYOY <lgl>, date <date>, yday <int>,
## #   year <int>, spawnDate <date>, emergeDate <date>, oneMonthDate <date>, threeMonthDate <date>, fiveMonthDate <date>,
## #   spawn_emerge <list>, emerge_detect <list>, spawn_detect <list>, oneMonth <list>, threeMonth <list>,
## #   fiveMonth <list>
…
3.2 Flow model

dataFlow <- read.csv("./dataIn/wbFlow/EcoDrought_Continuous_MA.csv")

tibble(dataFlow)

## # A tibble: 582,388 × 9
##    Station_No Site_Name   DateTime_EST   GageHeight_Hobo_ft Discharge_Hobo_cfs WaterTemperature_HOBO_D… AirPressure_PSI
##         <int> <chr>       <chr>                       <dbl>              <dbl>                    <dbl>           <dbl>
##  1    1171000 Avery Brook 2/20/2020 0:00               4.17               5.37                     32.0              NA
##  2    1171000 Avery Brook 2/20/2020 0:15               4.17               5.3                      32.0              NA
##  3    1171000 Avery Brook 2/20/2020 0:30               4.16               5.17                     32.0              NA
##  4    1171000 Avery Brook 2/20/2020 0:45               4.17               5.27                     32.0              NA
##  5    1171000 Avery Brook 2/20/2020 1:00               4.17               5.3                      32.0              NA
##  6    1171000 Avery Brook 2/20/2020 1:15               4.15               4.94                     31.9              NA
##  7    1171000 Avery Brook 2/20/2020 1:30               4.13               4.56                     31.9              NA
##  8    1171000 Avery Brook 2/20/2020 1:45               4.1                4.14                     31.9              NA
##  9    1171000 Avery Brook 2/20/2020 2:00               4.08               3.84                     31.9              NA
## 10    1171000 Avery Brook 2/20/2020 2:15               4.09               4.02                     31.9              NA
## # … with 582,378 more rows, and 2 more variables: AirTemperature_HOBO_degF <dbl>, X <lgl>
…
